## Interface: 50400
## DefaultState: Enabled
## Title: |cFFFF7D0AAzil|r|cFFFFFFFFTimers|r
## Author: Azilroka
## Version: 1.0
## OptionalDeps: Tukui, ElvUI, DuffedUI, AsphyxiaUI, Enhanced_Config
## SavedVariables: AzilTimersOptions
## Notes: Buff/Debuff Timers

AzilTimers.lua